%YAML 1.1
%TAG !u! tag:unity3d.com,2011:
--- !u!29 &1
OcclusionCullingSettings:
  m_ObjectHideFlags: 0
  serializedVersion: 2
  m_OcclusionBakeSettings:
    smallestOccluder: 5
    smallestHole: 0.25
    backfaceThreshold: 100
  m_SceneGUID: 00000000000000000000000000000000
  m_OcclusionCullingData: {fileID: 0}
--- !u!104 &2
RenderSettings:
  m_ObjectHideFlags: 0
  serializedVersion: 9
  m_Fog: 0
  m_FogColor: {r: 0.5, g: 0.5, b: 0.5, a: 1}
  m_FogMode: 3
  m_FogDensity: 0.01
  m_LinearFogStart: 0
  m_LinearFogEnd: 300
  m_AmbientSkyColor: {r: 0.212, g: 0.227, b: 0.259, a: 1}
  m_AmbientEquatorColor: {r: 0.114, g: 0.125, b: 0.133, a: 1}
  m_AmbientGroundColor: {r: 0.047, g: 0.043, b: 0.035, a: 1}
  m_AmbientIntensity: 1
  m_AmbientMode: 0
  m_SubtractiveShadowColor: {r: 0.42, g: 0.478, b: 0.627, a: 1}
  m_SkyboxMaterial: {fileID: 10304, guid: 0000000000000000f000000000000000, type: 0}
  m_HaloStrength: 0.5
  m_FlareStrength: 1
  m_FlareFadeSpeed: 3
  m_HaloTexture: {fileID: 0}
  m_SpotCookie: {fileID: 10001, guid: 0000000000000000e000000000000000, type: 0}
  m_DefaultReflectionMode: 0
  m_DefaultReflectionResolution: 128
  m_ReflectionBounces: 1
  m_ReflectionIntensity: 1
  m_CustomReflection: {fileID: 0}
  m_Sun: {fileID: 0}
  m_IndirectSpecularColor: {r: 0, g: 0, b: 0, a: 1}
  m_UseRadianceAmbientProbe: 0
--- !u!157 &3
LightmapSettings:
  m_ObjectHideFlags: 0
  serializedVersion: 12
  m_GIWorkflowMode: 0
  m_GISettings:
    serializedVersion: 2
    m_BounceScale: 1
    m_IndirectOutputScale: 1
    m_AlbedoBoost: 1
    m_EnvironmentLightingMode: 0
    m_EnableBakedLightmaps: 1
    m_EnableRealtimeLightmaps: 1
  m_LightmapEditorSettings:
    serializedVersion: 12
    m_Resolution: 2
    m_BakeResolution: 40
    m_AtlasSize: 1024
    m_AO: 0
    m_AOMaxDistance: 1
    m_CompAOExponent: 1
    m_CompAOExponentDirect: 0
    m_ExtractAmbientOcclusion: 0
    m_Padding: 2
    m_LightmapParameters: {fileID: 0}
    m_LightmapsBakeMode: 1
    m_TextureCompression: 1
    m_FinalGather: 0
    m_FinalGatherFiltering: 1
    m_FinalGatherRayCount: 256
    m_ReflectionCompression: 2
    m_MixedBakeMode: 1
    m_BakeBackend: 0
    m_PVRSampling: 1
    m_PVRDirectSampleCount: 32
    m_PVRSampleCount: 512
    m_PVRBounces: 2
    m_PVREnvironmentSampleCount: 512
    m_PVREnvironmentReferencePointCount: 2048
    m_PVRFilteringMode: 0
    m_PVRDenoiserTypeDirect: 0
    m_PVRDenoiserTypeIndirect: 0
    m_PVRDenoiserTypeAO: 0
    m_PVRFilterTypeDirect: 0
    m_PVRFilterTypeIndirect: 0
    m_PVRFilterTypeAO: 0
    m_PVREnvironmentMIS: 0
    m_PVRCulling: 1
    m_PVRFilteringGaussRadiusDirect: 1
    m_PVRFilteringGaussRadiusIndirect: 5
    m_PVRFilteringGaussRadiusAO: 2
    m_PVRFilteringAtrousPositionSigmaDirect: 0.5
    m_PVRFilteringAtrousPositionSigmaIndirect: 2
    m_PVRFilteringAtrousPositionSigmaAO: 1
    m_ExportTrainingData: 0
    m_TrainingDataDestination: TrainingData
    m_LightProbeSampleCountMultiplier: 4
  m_LightingDataAsset: {fileID: 0}
  m_LightingSettings: {fileID: 4890085278179872738, guid: 2eb0b960860816140883b4645ae14384, type: 2}
--- !u!196 &4
NavMeshSettings:
  serializedVersion: 2
  m_ObjectHideFlags: 0
  m_BuildSettings:
    serializedVersion: 2
    agentTypeID: 0
    agentRadius: 0.5
    agentHeight: 2
    agentSlope: 45
    agentClimb: 0.4
    ledgeDropHeight: 0
    maxJumpAcrossDistance: 0
    minRegionArea: 2
    manualCellSize: 0
    cellSize: 0.16666667
    manualTileSize: 0
    tileSize: 256
    accuratePlacement: 0
    maxJobWorkers: 0
    preserveTilesOutsideBounds: 0
    debug:
      m_Flags: 0
  m_NavMeshData: {fileID: 0}
--- !u!1001 &17264924
PrefabInstance:
  m_ObjectHideFlags: 0
  serializedVersion: 2
  m_Modification:
    m_TransformParent: {fileID: 0}
    m_Modifications:
    - target: {fileID: 4666064240953786, guid: e5c3e9a7976ba0748b615b22761dc9d6, type: 3}
      propertyPath: m_RootOrder
      value: 14
      objectReference: {fileID: 0}
    - target: {fileID: 4666064240953786, guid: e5c3e9a7976ba0748b615b22761dc9d6, type: 3}
      propertyPath: m_LocalPosition.x
      value: -5.62
      objectReference: {fileID: 0}
    - target: {fileID: 4666064240953786, guid: e5c3e9a7976ba0748b615b22761dc9d6, type: 3}
      propertyPath: m_LocalPosition.y
      value: 0
      objectReference: {fileID: 0}
    - target: {fileID: 4666064240953786, guid: e5c3e9a7976ba0748b615b22761dc9d6, type: 3}
      propertyPath: m_LocalPosition.z
      value: 0
      objectReference: {fileID: 0}
    - target: {fileID: 4666064240953786, guid: e5c3e9a7976ba0748b615b22761dc9d6, type: 3}
      propertyPath: m_LocalRotation.w
      value: 1
      objectReference: {fileID: 0}
    - target: {fileID: 4666064240953786, guid: e5c3e9a7976ba0748b615b22761dc9d6, type: 3}
      propertyPath: m_LocalRotation.x
      value: -0
      objectReference: {fileID: 0}
    - target: {fileID: 4666064240953786, guid: e5c3e9a7976ba0748b615b22761dc9d6, type: 3}
      propertyPath: m_LocalRotation.y
      value: -0
      objectReference: {fileID: 0}
    - target: {fileID: 4666064240953786, guid: e5c3e9a7976ba0748b615b22761dc9d6, type: 3}
      propertyPath: m_LocalRotation.z
      value: -0
      objectReference: {fileID: 0}
    m_RemovedComponents: []
  m_SourcePrefab: {fileID: 100100000, guid: e5c3e9a7976ba0748b615b22761dc9d6, type: 3}
--- !u!1001 &116943629
PrefabInstance:
  m_ObjectHideFlags: 0
  serializedVersion: 2
  m_Modification:
    m_TransformParent: {fileID: 0}
    m_Modifications:
    - target: {fileID: 4922311978429774, guid: 1a1f5ce53a8837f4ea47a8fa370b50b7, type: 3}
      propertyPath: m_RootOrder
      value: 18
      objectReference: {fileID: 0}
    - target: {fileID: 4922311978429774, guid: 1a1f5ce53a8837f4ea47a8fa370b50b7, type: 3}
      propertyPath: m_LocalPosition.x
      value: 4.64
      objectReference: {fileID: 0}
    - target: {fileID: 4922311978429774, guid: 1a1f5ce53a8837f4ea47a8fa370b50b7, type: 3}
      propertyPath: m_LocalPosition.y
      value: 0
      objectReference: {fileID: 0}
    - target: {fileID: 4922311978429774, guid: 1a1f5ce53a8837f4ea47a8fa370b50b7, type: 3}
      propertyPath: m_LocalPosition.z
      value: 0
      objectReference: {fileID: 0}
    - target: {fileID: 4922311978429774, guid: 1a1f5ce53a8837f4ea47a8fa370b50b7, type: 3}
      propertyPath: m_LocalRotation.w
      value: 1
      objectReference: {fileID: 0}
    - target: {fileID: 4922311978429774, guid: 1a1f5ce53a8837f4ea47a8fa370b50b7, type: 3}
      propertyPath: m_LocalRotation.x
      value: -0
      objectReference: {fileID: 0}
    - target: {fileID: 4922311978429774, guid: 1a1f5ce53a8837f4ea47a8fa370b50b7, type: 3}
      propertyPath: m_LocalRotation.y
      value: -0
      objectReference: {fileID: 0}
    - target: {fileID: 4922311978429774, guid: 1a1f5ce53a8837f4ea47a8fa370b50b7, type: 3}
      propertyPath: m_LocalRotation.z
      value: -0
      objectReference: {fileID: 0}
    m_RemovedComponents: []
  m_SourcePrefab: {fileID: 100100000, guid: 1a1f5ce53a8837f4ea47a8fa370b50b7, type: 3}
--- !u!1001 &291972435
PrefabInstance:
  m_ObjectHideFlags: 0
  serializedVersion: 2
  m_Modification:
    m_TransformParent: {fileID: 0}
    m_Modifications:
    - target: {fileID: 4833898083488800, guid: b26ac9c2f71432f4db87a3c347d3abbf, type: 3}
      propertyPath: m_RootOrder
      value: 2
      objectReference: {fileID: 0}
    - target: {fileID: 4833898083488800, guid: b26ac9c2f71432f4db87a3c347d3abbf, type: 3}
      propertyPath: m_LocalPosition.x
      value: -6.31
      objectReference: {fileID: 0}
    - target: {fileID: 4833898083488800, guid: b26ac9c2f71432f4db87a3c347d3abbf, type: 3}
      propertyPath: m_LocalPosition.y
      value: 0
      objectReference: {fileID: 0}
    - target: {fileID: 4833898083488800, guid: b26ac9c2f71432f4db87a3c347d3abbf, type: 3}
      propertyPath: m_LocalPosition.z
      value: -4.27
      objectReference: {fileID: 0}
    - target: {fileID: 4833898083488800, guid: b26ac9c2f71432f4db87a3c347d3abbf, type: 3}
      propertyPath: m_LocalRotation.w
      value: 1
      objectReference: {fileID: 0}
    - target: {fileID: 4833898083488800, guid: b26ac9c2f71432f4db87a3c347d3abbf, type: 3}
      propertyPath: m_LocalRotation.x
      value: -0
      objectReference: {fileID: 0}
    - target: {fileID: 4833898083488800, guid: b26ac9c2f71432f4db87a3c347d3abbf, type: 3}
      propertyPath: m_LocalRotation.y
      value: -0
      objectReference: {fileID: 0}
    - target: {fileID: 4833898083488800, guid: b26ac9c2f71432f4db87a3c347d3abbf, type: 3}
      propertyPath: m_LocalRotation.z
      value: -0
      objectReference: {fileID: 0}
    m_RemovedComponents: []
  m_SourcePrefab: {fileID: 100100000, guid: b26ac9c2f71432f4db87a3c347d3abbf, type: 3}
--- !u!1001 &436890528
PrefabInstance:
  m_ObjectHideFlags: 0
  serializedVersion: 2
  m_Modification:
    m_TransformParent: {fileID: 0}
    m_Modifications:
    - target: {fileID: 4523192223305126, guid: 3e45a41584f57984b83abcb954d23533, type: 3}
      propertyPath: m_RootOrder
      value: 17
      objectReference: {fileID: 0}
    - target: {fileID: 4523192223305126, guid: 3e45a41584f57984b83abcb954d23533, type: 3}
      propertyPath: m_LocalPosition.x
      value: -3.62
      objectReference: {fileID: 0}
    - target: {fileID: 4523192223305126, guid: 3e45a41584f57984b83abcb954d23533, type: 3}
      propertyPath: m_LocalPosition.y
      value: 0
      objectReference: {fileID: 0}
    - target: {fileID: 4523192223305126, guid: 3e45a41584f57984b83abcb954d23533, type: 3}
      propertyPath: m_LocalPosition.z
      value: 0
      objectReference: {fileID: 0}
    - target: {fileID: 4523192223305126, guid: 3e45a41584f57984b83abcb954d23533, type: 3}
      propertyPath: m_LocalRotation.w
      value: 1
      objectReference: {fileID: 0}
    - target: {fileID: 4523192223305126, guid: 3e45a41584f57984b83abcb954d23533, type: 3}
      propertyPath: m_LocalRotation.x
      value: -0
      objectReference: {fileID: 0}
    - target: {fileID: 4523192223305126, guid: 3e45a41584f57984b83abcb954d23533, type: 3}
      propertyPath: m_LocalRotation.y
      value: -0
      objectReference: {fileID: 0}
    - target: {fileID: 4523192223305126, guid: 3e45a41584f57984b83abcb954d23533, type: 3}
      propertyPath: m_LocalRotation.z
      value: -0
      objectReference: {fileID: 0}
    m_RemovedComponents: []
  m_SourcePrefab: {fileID: 100100000, guid: 3e45a41584f57984b83abcb954d23533, type: 3}
--- !u!1001 &490208970
PrefabInstance:
  m_ObjectHideFlags: 0
  serializedVersion: 2
  m_Modification:
    m_TransformParent: {fileID: 0}
    m_Modifications:
    - target: {fileID: 4820016761809200, guid: de89f99ec88a1a84bb80132bbc06100f, type: 3}
      propertyPath: m_RootOrder
      value: 5
      objectReference: {fileID: 0}
    - target: {fileID: 4820016761809200, guid: de89f99ec88a1a84bb80132bbc06100f, type: 3}
      propertyPath: m_LocalPosition.x
      value: 2.94
      objectReference: {fileID: 0}
    - target: {fileID: 4820016761809200, guid: de89f99ec88a1a84bb80132bbc06100f, type: 3}
      propertyPath: m_LocalPosition.y
      value: 0
      objectReference: {fileID: 0}
    - target: {fileID: 4820016761809200, guid: de89f99ec88a1a84bb80132bbc06100f, type: 3}
      propertyPath: m_LocalPosition.z
      value: -4.24
      objectReference: {fileID: 0}
    - target: {fileID: 4820016761809200, guid: de89f99ec88a1a84bb80132bbc06100f, type: 3}
      propertyPath: m_LocalRotation.w
      value: 1
      objectReference: {fileID: 0}
    - target: {fileID: 4820016761809200, guid: de89f99ec88a1a84bb80132bbc06100f, type: 3}
      propertyPath: m_LocalRotation.x
      value: 0
      objectReference: {fileID: 0}
    - target: {fileID: 4820016761809200, guid: de89f99ec88a1a84bb80132bbc06100f, type: 3}
      propertyPath: m_LocalRotation.y
      value: 0
      objectReference: {fileID: 0}
    - target: {fileID: 4820016761809200, guid: de89f99ec88a1a84bb80132bbc06100f, type: 3}
      propertyPath: m_LocalRotation.z
      value: 0
      objectReference: {fileID: 0}
    m_RemovedComponents: []
  m_SourcePrefab: {fileID: 100100000, guid: de89f99ec88a1a84bb80132bbc06100f, type: 3}
--- !u!1001 &667387791
PrefabInstance:
  m_ObjectHideFlags: 0
  serializedVersion: 2
  m_Modification:
    m_TransformParent: {fileID: 0}
    m_Modifications:
    - target: {fileID: 4112732071696034, guid: 120be0bd5d559974cb0f19fa90521adf, type: 3}
      propertyPath: m_RootOrder
      value: 12
      objectReference: {fileID: 0}
    - target: {fileID: 4112732071696034, guid: 120be0bd5d559974cb0f19fa90521adf, type: 3}
      propertyPath: m_LocalPosition.x
      value: -9.58
      objectReference: {fileID: 0}
    - target: {fileID: 4112732071696034, guid: 120be0bd5d559974cb0f19fa90521adf, type: 3}
      propertyPath: m_LocalPosition.y
      value: 0
      objectReference: {fileID: 0}
    - target: {fileID: 4112732071696034, guid: 120be0bd5d559974cb0f19fa90521adf, type: 3}
      propertyPath: m_LocalPosition.z
      value: 0
      objectReference: {fileID: 0}
    - target: {fileID: 4112732071696034, guid: 120be0bd5d559974cb0f19fa90521adf, type: 3}
      propertyPath: m_LocalRotation.w
      value: 1
      objectReference: {fileID: 0}
    - target: {fileID: 4112732071696034, guid: 120be0bd5d559974cb0f19fa90521adf, type: 3}
      propertyPath: m_LocalRotation.x
      value: -0
      objectReference: {fileID: 0}
    - target: {fileID: 4112732071696034, guid: 120be0bd5d559974cb0f19fa90521adf, type: 3}
      propertyPath: m_LocalRotation.y
      value: -0
      objectReference: {fileID: 0}
    - target: {fileID: 4112732071696034, guid: 120be0bd5d559974cb0f19fa90521adf, type: 3}
      propertyPath: m_LocalRotation.z
      value: -0
      objectReference: {fileID: 0}
    m_RemovedComponents: []
  m_SourcePrefab: {fileID: 100100000, guid: 120be0bd5d559974cb0f19fa90521adf, type: 3}
--- !u!1 &855922715
GameObject:
  m_ObjectHideFlags: 0
  m_CorrespondingSourceObject: {fileID: 0}
  m_PrefabInstance: {fileID: 0}
  m_PrefabAsset: {fileID: 0}
  serializedVersion: 6
  m_Component:
  - component: {fileID: 855922717}
  - component: {fileID: 855922716}
  m_Layer: 0
  m_Name: Reflection Probe
  m_TagString: Untagged
  m_Icon: {fileID: 0}
  m_NavMeshLayer: 0
  m_StaticEditorFlags: 0
  m_IsActive: 1
--- !u!215 &855922716
ReflectionProbe:
  m_ObjectHideFlags: 0
  m_CorrespondingSourceObject: {fileID: 0}
  m_PrefabInstance: {fileID: 0}
  m_PrefabAsset: {fileID: 0}
  m_GameObject: {fileID: 855922715}
  m_Enabled: 1
  serializedVersion: 2
  m_Type: 0
  m_Mode: 0
  m_RefreshMode: 0
  m_TimeSlicingMode: 0
  m_Resolution: 128
  m_UpdateFrequency: 0
  m_BoxSize: {x: 10, y: 10, z: 10}
  m_BoxOffset: {x: 0, y: 0, z: 0}
  m_NearClip: 0.3
  m_FarClip: 1000
  m_ShadowDistance: 100
  m_ClearFlags: 1
  m_BackGroundColor: {r: 0.19215687, g: 0.3019608, b: 0.4745098, a: 0}
  m_CullingMask:
    serializedVersion: 2
    m_Bits: 4294967295
  m_IntensityMultiplier: 1
  m_BlendDistance: 1
  m_HDR: 1
  m_BoxProjection: 0
  m_RenderDynamicObjects: 0
  m_UseOcclusionCulling: 1
  m_Importance: 1
  m_CustomBakedTexture: {fileID: 0}
--- !u!4 &855922717
Transform:
  m_ObjectHideFlags: 0
  m_CorrespondingSourceObject: {fileID: 0}
  m_PrefabInstance: {fileID: 0}
  m_PrefabAsset: {fileID: 0}
  m_GameObject: {fileID: 855922715}
  m_LocalRotation: {x: 0, y: 0, z: 0, w: 1}
  m_LocalPosition: {x: -0.45, y: 6.04, z: -7.36}
  m_LocalScale: {x: 1, y: 1, z: 1}
  m_Children: []
  m_Father: {fileID: 0}
  m_RootOrder: 20
  m_LocalEulerAnglesHint: {x: 0, y: 0, z: 0}
--- !u!1001 &1001543890
PrefabInstance:
  m_ObjectHideFlags: 0
  serializedVersion: 2
  m_Modification:
    m_TransformParent: {fileID: 0}
    m_Modifications:
    - target: {fileID: 4563204197245340, guid: 79c26a481b2dbd048975d4c1c1393073, type: 3}
      propertyPath: m_RootOrder
      value: 7
      objectReference: {fileID: 0}
    - target: {fileID: 4563204197245340, guid: 79c26a481b2dbd048975d4c1c1393073, type: 3}
      propertyPath: m_LocalPosition.x
      value: 0
      objectReference: {fileID: 0}
    - target: {fileID: 4563204197245340, guid: 79c26a481b2dbd048975d4c1c1393073, type: 3}
      propertyPath: m_LocalPosition.y
      value: 0
      objectReference: {fileID: 0}
    - target: {fileID: 4563204197245340, guid: 79c26a481b2dbd048975d4c1c1393073, type: 3}
      propertyPath: m_LocalPosition.z
      value: -4.19
      objectReference: {fileID: 0}
    - target: {fileID: 4563204197245340, guid: 79c26a481b2dbd048975d4c1c1393073, type: 3}
      propertyPath: m_LocalRotation.w
      value: 1
      objectReference: {fileID: 0}
    - target: {fileID: 4563204197245340, guid: 79c26a481b2dbd048975d4c1c1393073, type: 3}
      propertyPath: m_LocalRotation.x
      value: 0
      objectReference: {fileID: 0}
    - target: {fileID: 4563204197245340, guid: 79c26a481b2dbd048975d4c1c1393073, type: 3}
      propertyPath: m_LocalRotation.y
      value: 0
      objectReference: {fileID: 0}
    - target: {fileID: 4563204197245340, guid: 79c26a481b2dbd048975d4c1c1393073, type: 3}
      propertyPath: m_LocalRotation.z
      value: 0
      objectReference: {fileID: 0}
    m_RemovedComponents: []
  m_SourcePrefab: {fileID: 100100000, guid: 79c26a481b2dbd048975d4c1c1393073, type: 3}
--- !u!1 &1046555895
GameObject:
  m_ObjectHideFlags: 0
  m_CorrespondingSourceObject: {fileID: 0}
  m_PrefabInstance: {fileID: 0}
  m_PrefabAsset: {fileID: 0}
  serializedVersion: 6
  m_Component:
  - component: {fileID: 1046555900}
  - component: {fileID: 1046555899}
  - component: {fileID: 1046555897}
  - component: {fileID: 1046555896}
  m_Layer: 0
  m_Name: Main Camera
  m_TagString: MainCamera
  m_Icon: {fileID: 0}
  m_NavMeshLayer: 0
  m_StaticEditorFlags: 0
  m_IsActive: 1
--- !u!81 &1046555896
AudioListener:
  m_ObjectHideFlags: 0
  m_CorrespondingSourceObject: {fileID: 0}
  m_PrefabInstance: {fileID: 0}
  m_PrefabAsset: {fileID: 0}
  m_GameObject: {fileID: 1046555895}
  m_Enabled: 1
--- !u!124 &1046555897
Behaviour:
  m_ObjectHideFlags: 0
  m_CorrespondingSourceObject: {fileID: 0}
  m_PrefabInstance: {fileID: 0}
  m_PrefabAsset: {fileID: 0}
  m_GameObject: {fileID: 1046555895}
  m_Enabled: 1
--- !u!20 &1046555899
Camera:
  m_ObjectHideFlags: 0
  m_CorrespondingSourceObject: {fileID: 0}
  m_PrefabInstance: {fileID: 0}
  m_PrefabAsset: {fileID: 0}
  m_GameObject: {fileID: 1046555895}
  m_Enabled: 1
  serializedVersion: 2
  m_ClearFlags: 1
  m_BackGroundColor: {r: 0.19215687, g: 0.3019608, b: 0.4745098, a: 0}
  m_projectionMatrixMode: 1
  m_GateFitMode: 2
  m_FOVAxisMode: 0
  m_SensorSize: {x: 36, y: 24}
  m_LensShift: {x: 0, y: 0}
  m_FocalLength: 50
  m_NormalizedViewPortRect:
    serializedVersion: 2
    x: 0
    y: 0
    width: 1
    height: 1
  near clip plane: 0.3
  far clip plane: 1000
  field of view: 60
  orthographic: 0
  orthographic size: 5
  m_Depth: -1
  m_CullingMask:
    serializedVersion: 2
    m_Bits: 4294967295
  m_RenderingPath: -1
  m_TargetTexture: {fileID: 0}
  m_TargetDisplay: 0
  m_TargetEye: 3
  m_HDR: 0
  m_AllowMSAA: 1
  m_AllowDynamicResolution: 0
  m_ForceIntoRT: 0
  m_OcclusionCulling: 1
  m_StereoConvergence: 10
  m_StereoSeparation: 0.022
--- !u!4 &1046555900
Transform:
  m_ObjectHideFlags: 0
  m_CorrespondingSourceObject: {fileID: 0}
  m_PrefabInstance: {fileID: 0}
  m_PrefabAsset: {fileID: 0}
  m_GameObject: {fileID: 1046555895}
  m_LocalRotation: {x: 0.33094278, y: -0.022543846, z: 0.0030767315, w: 0.94337654}
  m_LocalPosition: {x: 0.96, y: 5.84, z: -10.23}
  m_LocalScale: {x: 1, y: 1, z: 1}
  m_Children: []
  m_Father: {fileID: 0}
  m_RootOrder: 0
  m_LocalEulerAnglesHint: {x: 38.649002, y: -2.9720001, z: -0.669}
--- !u!1001 &1113959049
PrefabInstance:
  m_ObjectHideFlags: 0
  serializedVersion: 2
  m_Modification:
    m_TransformParent: {fileID: 0}
    m_Modifications:
    - target: {fileID: 4717529996409448, guid: b32cfe48c5162a042b310814efbc1622, type: 3}
      propertyPath: m_RootOrder
      value: 16
      objectReference: {fileID: 0}
    - target: {fileID: 4717529996409448, guid: b32cfe48c5162a042b310814efbc1622, type: 3}
      propertyPath: m_LocalPosition.x
      value: -1.63
      objectReference: {fileID: 0}
    - target: {fileID: 4717529996409448, guid: b32cfe48c5162a042b310814efbc1622, type: 3}
      propertyPath: m_LocalPosition.y
      value: 0
      objectReference: {fileID: 0}
    - target: {fileID: 4717529996409448, guid: b32cfe48c5162a042b310814efbc1622, type: 3}
      propertyPath: m_LocalPosition.z
      value: 0
      objectReference: {fileID: 0}
    - target: {fileID: 4717529996409448, guid: b32cfe48c5162a042b310814efbc1622, type: 3}
      propertyPath: m_LocalRotation.w
      value: 1
      objectReference: {fileID: 0}
    - target: {fileID: 4717529996409448, guid: b32cfe48c5162a042b310814efbc1622, type: 3}
      propertyPath: m_LocalRotation.x
      value: -0
      objectReference: {fileID: 0}
    - target: {fileID: 4717529996409448, guid: b32cfe48c5162a042b310814efbc1622, type: 3}
      propertyPath: m_LocalRotation.y
      value: -0
      objectReference: {fileID: 0}
    - target: {fileID: 4717529996409448, guid: b32cfe48c5162a042b310814efbc1622, type: 3}
      propertyPath: m_LocalRotation.z
      value: -0
      objectReference: {fileID: 0}
    m_RemovedComponents: []
  m_SourcePrefab: {fileID: 100100000, guid: b32cfe48c5162a042b310814efbc1622, type: 3}
--- !u!1001 &1147329182
PrefabInstance:
  m_ObjectHideFlags: 0
  serializedVersion: 2
  m_Modification:
    m_TransformParent: {fileID: 0}
    m_Modifications:
    - target: {fileID: 4790703309438130, guid: 14139667d347b0c4083251d17abd2331, type: 3}
      propertyPath: m_RootOrder
      value: 15
      objectReference: {fileID: 0}
    - target: {fileID: 4790703309438130, guid: 14139667d347b0c4083251d17abd2331, type: 3}
      propertyPath: m_LocalPosition.x
      value: 0
      objectReference: {fileID: 0}
    - target: {fileID: 4790703309438130, guid: 14139667d347b0c4083251d17abd2331, type: 3}
      propertyPath: m_LocalPosition.y
      value: 0
      objectReference: {fileID: 0}
    - target: {fileID: 4790703309438130, guid: 14139667d347b0c4083251d17abd2331, type: 3}
      propertyPath: m_LocalPosition.z
      value: 0
      objectReference: {fileID: 0}
    - target: {fileID: 4790703309438130, guid: 14139667d347b0c4083251d17abd2331, type: 3}
      propertyPath: m_LocalRotation.w
      value: 1
      objectReference: {fileID: 0}
    - target: {fileID: 4790703309438130, guid: 14139667d347b0c4083251d17abd2331, type: 3}
      propertyPath: m_LocalRotation.x
      value: -0
      objectReference: {fileID: 0}
    - target: {fileID: 4790703309438130, guid: 14139667d347b0c4083251d17abd2331, type: 3}
      propertyPath: m_LocalRotation.y
      value: -0
      objectReference: {fileID: 0}
    - target: {fileID: 4790703309438130, guid: 14139667d347b0c4083251d17abd2331, type: 3}
      propertyPath: m_LocalRotation.z
      value: -0
      objectReference: {fileID: 0}
    m_RemovedComponents: []
  m_SourcePrefab: {fileID: 100100000, guid: 14139667d347b0c4083251d17abd2331, type: 3}
--- !u!1001 &1151625489
PrefabInstance:
  m_ObjectHideFlags: 0
  serializedVersion: 2
  m_Modification:
    m_TransformParent: {fileID: 0}
    m_Modifications:
    - target: {fileID: 4563204197245340, guid: d2b6f65655ca1e14f9abe9e3a9c14231, type: 3}
      propertyPath: m_RootOrder
      value: 6
      objectReference: {fileID: 0}
    - target: {fileID: 4563204197245340, guid: d2b6f65655ca1e14f9abe9e3a9c14231, type: 3}
      propertyPath: m_LocalPosition.x
      value: -2.05
      objectReference: {fileID: 0}
    - target: {fileID: 4563204197245340, guid: d2b6f65655ca1e14f9abe9e3a9c14231, type: 3}
      propertyPath: m_LocalPosition.y
      value: 0
      objectReference: {fileID: 0}
    - target: {fileID: 4563204197245340, guid: d2b6f65655ca1e14f9abe9e3a9c14231, type: 3}
      propertyPath: m_LocalPosition.z
      value: -4.18
      objectReference: {fileID: 0}
    - target: {fileID: 4563204197245340, guid: d2b6f65655ca1e14f9abe9e3a9c14231, type: 3}
      propertyPath: m_LocalRotation.w
      value: 1
      objectReference: {fileID: 0}
    - target: {fileID: 4563204197245340, guid: d2b6f65655ca1e14f9abe9e3a9c14231, type: 3}
      propertyPath: m_LocalRotation.x
      value: -0
      objectReference: {fileID: 0}
    - target: {fileID: 4563204197245340, guid: d2b6f65655ca1e14f9abe9e3a9c14231, type: 3}
      propertyPath: m_LocalRotation.y
      value: -0
      objectReference: {fileID: 0}
    - target: {fileID: 4563204197245340, guid: d2b6f65655ca1e14f9abe9e3a9c14231, type: 3}
      propertyPath: m_LocalRotation.z
      value: -0
      objectReference: {fileID: 0}
    m_RemovedComponents: []
  m_SourcePrefab: {fileID: 100100000, guid: d2b6f65655ca1e14f9abe9e3a9c14231, type: 3}
--- !u!1001 &1162373410
PrefabInstance:
  m_ObjectHideFlags: 0
  serializedVersion: 2
  m_Modification:
    m_TransformParent: {fileID: 0}
    m_Modifications:
    - target: {fileID: 4922311978429774, guid: 579ec92a8a290524e8ce90953226deec, type: 3}
      propertyPath: m_RootOrder
      value: 19
      objectReference: {fileID: 0}
    - target: {fileID: 4922311978429774, guid: 579ec92a8a290524e8ce90953226deec, type: 3}
      propertyPath: m_LocalPosition.x
      value: 2.66
      objectReference: {fileID: 0}
    - target: {fileID: 4922311978429774, guid: 579ec92a8a290524e8ce90953226deec, type: 3}
      propertyPath: m_LocalPosition.y
      value: 0
      objectReference: {fileID: 0}
    - target: {fileID: 4922311978429774, guid: 579ec92a8a290524e8ce90953226deec, type: 3}
      propertyPath: m_LocalPosition.z
      value: 0
      objectReference: {fileID: 0}
    - target: {fileID: 4922311978429774, guid: 579ec92a8a290524e8ce90953226deec, type: 3}
      propertyPath: m_LocalRotation.w
      value: 1
      objectReference: {fileID: 0}
    - target: {fileID: 4922311978429774, guid: 579ec92a8a290524e8ce90953226deec, type: 3}
      propertyPath: m_LocalRotation.x
      value: 0
      objectReference: {fileID: 0}
    - target: {fileID: 4922311978429774, guid: 579ec92a8a290524e8ce90953226deec, type: 3}
      propertyPath: m_LocalRotation.y
      value: 0
      objectReference: {fileID: 0}
    - target: {fileID: 4922311978429774, guid: 579ec92a8a290524e8ce90953226deec, type: 3}
      propertyPath: m_LocalRotation.z
      value: 0
      objectReference: {fileID: 0}
    m_RemovedComponents: []
  m_SourcePrefab: {fileID: 100100000, guid: 579ec92a8a290524e8ce90953226deec, type: 3}
--- !u!1001 &1218010615
PrefabInstance:
  m_ObjectHideFlags: 0
  serializedVersion: 2
  m_Modification:
    m_TransformParent: {fileID: 0}
    m_Modifications:
    - target: {fileID: 4656258268847654, guid: caedb7a82c6fbd04fbc427f9d479c74f, type: 3}
      propertyPath: m_RootOrder
      value: 13
      objectReference: {fileID: 0}
    - target: {fileID: 4656258268847654, guid: caedb7a82c6fbd04fbc427f9d479c74f, type: 3}
      propertyPath: m_LocalPosition.x
      value: -7.72
      objectReference: {fileID: 0}
    - target: {fileID: 4656258268847654, guid: caedb7a82c6fbd04fbc427f9d479c74f, type: 3}
      propertyPath: m_LocalPosition.y
      value: 0
      objectReference: {fileID: 0}
    - target: {fileID: 4656258268847654, guid: caedb7a82c6fbd04fbc427f9d479c74f, type: 3}
      propertyPath: m_LocalPosition.z
      value: 0
      objectReference: {fileID: 0}
    - target: {fileID: 4656258268847654, guid: caedb7a82c6fbd04fbc427f9d479c74f, type: 3}
      propertyPath: m_LocalRotation.w
      value: 1
      objectReference: {fileID: 0}
    - target: {fileID: 4656258268847654, guid: caedb7a82c6fbd04fbc427f9d479c74f, type: 3}
      propertyPath: m_LocalRotation.x
      value: -0
      objectReference: {fileID: 0}
    - target: {fileID: 4656258268847654, guid: caedb7a82c6fbd04fbc427f9d479c74f, type: 3}
      propertyPath: m_LocalRotation.y
      value: -0
      objectReference: {fileID: 0}
    - target: {fileID: 4656258268847654, guid: caedb7a82c6fbd04fbc427f9d479c74f, type: 3}
      propertyPath: m_LocalRotation.z
      value: -0
      objectReference: {fileID: 0}
    m_RemovedComponents: []
  m_SourcePrefab: {fileID: 100100000, guid: caedb7a82c6fbd04fbc427f9d479c74f, type: 3}
--- !u!1 &1249781382
GameObject:
  m_ObjectHideFlags: 0
  m_CorrespondingSourceObject: {fileID: 0}
  m_PrefabInstance: {fileID: 0}
  m_PrefabAsset: {fileID: 0}
  serializedVersion: 6
  m_Component:
  - component: {fileID: 1249781384}
  - component: {fileID: 1249781383}
  m_Layer: 0
  m_Name: Directional Light
  m_TagString: Untagged
  m_Icon: {fileID: 0}
  m_NavMeshLayer: 0
  m_StaticEditorFlags: 0
  m_IsActive: 1
--- !u!108 &1249781383
Light:
  m_ObjectHideFlags: 0
  m_CorrespondingSourceObject: {fileID: 0}
  m_PrefabInstance: {fileID: 0}
  m_PrefabAsset: {fileID: 0}
  m_GameObject: {fileID: 1249781382}
  m_Enabled: 1
  serializedVersion: 10
  m_Type: 1
  m_Shape: 0
  m_Color: {r: 1, g: 0.95686275, b: 0.8392157, a: 1}
  m_Intensity: 1.3
  m_Range: 10
  m_SpotAngle: 30
  m_InnerSpotAngle: 21.80208
  m_CookieSize: 10
  m_Shadows:
    m_Type: 2
    m_Resolution: -1
    m_CustomResolution: -1
    m_Strength: 1
    m_Bias: 0.05
    m_NormalBias: 0.4
    m_NearPlane: 0.2
    m_CullingMatrixOverride:
      e00: 1
      e01: 0
      e02: 0
      e03: 0
      e10: 0
      e11: 1
      e12: 0
      e13: 0
      e20: 0
      e21: 0
      e22: 1
      e23: 0
      e30: 0
      e31: 0
      e32: 0
      e33: 1
    m_UseCullingMatrixOverride: 0
  m_Cookie: {fileID: 0}
  m_DrawHalo: 0
  m_Flare: {fileID: 0}
  m_RenderMode: 0
  m_CullingMask:
    serializedVersion: 2
    m_Bits: 4294967295
  m_RenderingLayerMask: 1
  m_Lightmapping: 4
  m_LightShadowCasterMode: 0
  m_AreaSize: {x: 1, y: 1}
  m_BounceIntensity: 1
  m_ColorTemperature: 6570
  m_UseColorTemperature: 0
  m_BoundingSphereOverride: {x: 0, y: 0, z: 0, w: 0}
  m_UseBoundingSphereOverride: 0
  m_UseViewFrustumForShadowCasterCull: 1
  m_ShadowRadius: 0
  m_ShadowAngle: 0
--- !u!4 &1249781384
Transform:
  m_ObjectHideFlags: 0
  m_CorrespondingSourceObject: {fileID: 0}
  m_PrefabInstance: {fileID: 0}
  m_PrefabAsset: {fileID: 0}
  m_GameObject: {fileID: 1249781382}
  m_LocalRotation: {x: 0.3169687, y: -0.06711607, z: -0.06895849, w: 0.94354177}
  m_LocalPosition: {x: 0, y: 5.06, z: 0}
  m_LocalScale: {x: 1, y: 1, z: 1}
  m_Children: []
  m_Father: {fileID: 0}
  m_RootOrder: 1
  m_LocalEulerAnglesHint: {x: 36.078003, y: -12.169001, z: -12.337001}
--- !u!1001 &1306690842
PrefabInstance:
  m_ObjectHideFlags: 0
  serializedVersion: 2
  m_Modification:
    m_TransformParent: {fileID: 0}
    m_Modifications:
    - target: {fileID: 4468544496900704, guid: 92ee22fffd72bd9468071a544a4fd4cb, type: 3}
      propertyPath: m_RootOrder
      value: 9
      objectReference: {fileID: 0}
    - target: {fileID: 4468544496900704, guid: 92ee22fffd72bd9468071a544a4fd4cb, type: 3}
      propertyPath: m_LocalPosition.x
      value: 8.26
      objectReference: {fileID: 0}
    - target: {fileID: 4468544496900704, guid: 92ee22fffd72bd9468071a544a4fd4cb, type: 3}
      propertyPath: m_LocalPosition.y
      value: 0
      objectReference: {fileID: 0}
    - target: {fileID: 4468544496900704, guid: 92ee22fffd72bd9468071a544a4fd4cb, type: 3}
      propertyPath: m_LocalPosition.z
      value: 0
      objectReference: {fileID: 0}
    - target: {fileID: 4468544496900704, guid: 92ee22fffd72bd9468071a544a4fd4cb, type: 3}
      propertyPath: m_LocalRotation.w
      value: 1
      objectReference: {fileID: 0}
    - target: {fileID: 4468544496900704, guid: 92ee22fffd72bd9468071a544a4fd4cb, type: 3}
      propertyPath: m_LocalRotation.x
      value: -0
      objectReference: {fileID: 0}
    - target: {fileID: 4468544496900704, guid: 92ee22fffd72bd9468071a544a4fd4cb, type: 3}
      propertyPath: m_LocalRotation.y
      value: -0
      objectReference: {fileID: 0}
    - target: {fileID: 4468544496900704, guid: 92ee22fffd72bd9468071a544a4fd4cb, type: 3}
      propertyPath: m_LocalRotation.z
      value: -0
      objectReference: {fileID: 0}
    m_RemovedComponents: []
  m_SourcePrefab: {fileID: 100100000, guid: 92ee22fffd72bd9468071a544a4fd4cb, type: 3}
--- !u!1001 &1326845930
PrefabInstance:
  m_ObjectHideFlags: 0
  serializedVersion: 2
  m_Modification:
    m_TransformParent: {fileID: 0}
    m_Modifications:
    - target: {fileID: 4963236575184234, guid: da5cf56a40776974998b59f3775798aa, type: 3}
      propertyPath: m_RootOrder
      value: 10
      objectReference: {fileID: 0}
    - target: {fileID: 4963236575184234, guid: da5cf56a40776974998b59f3775798aa, type: 3}
      propertyPath: m_LocalPosition.x
      value: 6.37
      objectReference: {fileID: 0}
    - target: {fileID: 4963236575184234, guid: da5cf56a40776974998b59f3775798aa, type: 3}
      propertyPath: m_LocalPosition.y
      value: 0
      objectReference: {fileID: 0}
    - target: {fileID: 4963236575184234, guid: da5cf56a40776974998b59f3775798aa, type: 3}
      propertyPath: m_LocalPosition.z
      value: 0
      objectReference: {fileID: 0}
    - target: {fileID: 4963236575184234, guid: da5cf56a40776974998b59f3775798aa, type: 3}
      propertyPath: m_LocalRotation.w
      value: 1
      objectReference: {fileID: 0}
    - target: {fileID: 4963236575184234, guid: da5cf56a40776974998b59f3775798aa, type: 3}
      propertyPath: m_LocalRotation.x
      value: -0
      objectReference: {fileID: 0}
    - target: {fileID: 4963236575184234, guid: da5cf56a40776974998b59f3775798aa, type: 3}
      propertyPath: m_LocalRotation.y
      value: -0
      objectReference: {fileID: 0}
    - target: {fileID: 4963236575184234, guid: da5cf56a40776974998b59f3775798aa, type: 3}
      propertyPath: m_LocalRotation.z
      value: -0
      objectReference: {fileID: 0}
    m_RemovedComponents: []
  m_SourcePrefab: {fileID: 100100000, guid: da5cf56a40776974998b59f3775798aa, type: 3}
--- !u!1001 &1443006678
PrefabInstance:
  m_ObjectHideFlags: 0
  serializedVersion: 2
  m_Modification:
    m_TransformParent: {fileID: 0}
    m_Modifications:
    - target: {fileID: 4007185903635410, guid: c526c1ebfd7eadc4e8120906e0953007, type: 3}
      propertyPath: m_RootOrder
      value: 8
      objectReference: {fileID: 0}
    - target: {fileID: 4007185903635410, guid: c526c1ebfd7eadc4e8120906e0953007, type: 3}
      propertyPath: m_LocalPosition.x
      value: 10.74
      objectReference: {fileID: 0}
    - target: {fileID: 4007185903635410, guid: c526c1ebfd7eadc4e8120906e0953007, type: 3}
      propertyPath: m_LocalPosition.y
      value: 0
      objectReference: {fileID: 0}
    - target: {fileID: 4007185903635410, guid: c526c1ebfd7eadc4e8120906e0953007, type: 3}
      propertyPath: m_LocalPosition.z
      value: 0
      objectReference: {fileID: 0}
    - target: {fileID: 4007185903635410, guid: c526c1ebfd7eadc4e8120906e0953007, type: 3}
      propertyPath: m_LocalRotation.w
      value: 1
      objectReference: {fileID: 0}
    - target: {fileID: 4007185903635410, guid: c526c1ebfd7eadc4e8120906e0953007, type: 3}
      propertyPath: m_LocalRotation.x
      value: -0
      objectReference: {fileID: 0}
    - target: {fileID: 4007185903635410, guid: c526c1ebfd7eadc4e8120906e0953007, type: 3}
      propertyPath: m_LocalRotation.y
      value: -0
      objectReference: {fileID: 0}
    - target: {fileID: 4007185903635410, guid: c526c1ebfd7eadc4e8120906e0953007, type: 3}
      propertyPath: m_LocalRotation.z
      value: -0
      objectReference: {fileID: 0}
    m_RemovedComponents: []
  m_SourcePrefab: {fileID: 100100000, guid: c526c1ebfd7eadc4e8120906e0953007, type: 3}
--- !u!1001 &1597079938
PrefabInstance:
  m_ObjectHideFlags: 0
  serializedVersion: 2
  m_Modification:
    m_TransformParent: {fileID: 0}
    m_Modifications:
    - target: {fileID: 4820016761809200, guid: a2ad38231d93cc845b2dfbff90afd7b5, type: 3}
      propertyPath: m_RootOrder
      value: 4
      objectReference: {fileID: 0}
    - target: {fileID: 4820016761809200, guid: a2ad38231d93cc845b2dfbff90afd7b5, type: 3}
      propertyPath: m_LocalPosition.x
      value: 5.95
      objectReference: {fileID: 0}
    - target: {fileID: 4820016761809200, guid: a2ad38231d93cc845b2dfbff90afd7b5, type: 3}
      propertyPath: m_LocalPosition.y
      value: 0
      objectReference: {fileID: 0}
    - target: {fileID: 4820016761809200, guid: a2ad38231d93cc845b2dfbff90afd7b5, type: 3}
      propertyPath: m_LocalPosition.z
      value: -4.31
      objectReference: {fileID: 0}
    - target: {fileID: 4820016761809200, guid: a2ad38231d93cc845b2dfbff90afd7b5, type: 3}
      propertyPath: m_LocalRotation.w
      value: 1
      objectReference: {fileID: 0}
    - target: {fileID: 4820016761809200, guid: a2ad38231d93cc845b2dfbff90afd7b5, type: 3}
      propertyPath: m_LocalRotation.x
      value: -0
      objectReference: {fileID: 0}
    - target: {fileID: 4820016761809200, guid: a2ad38231d93cc845b2dfbff90afd7b5, type: 3}
      propertyPath: m_LocalRotation.y
      value: -0
      objectReference: {fileID: 0}
    - target: {fileID: 4820016761809200, guid: a2ad38231d93cc845b2dfbff90afd7b5, type: 3}
      propertyPath: m_LocalRotation.z
      value: -0
      objectReference: {fileID: 0}
    m_RemovedComponents: []
  m_SourcePrefab: {fileID: 100100000, guid: a2ad38231d93cc845b2dfbff90afd7b5, type: 3}
--- !u!1001 &1965236163
PrefabInstance:
  m_ObjectHideFlags: 0
  serializedVersion: 2
  m_Modification:
    m_TransformParent: {fileID: 0}
    m_Modifications:
    - target: {fileID: 4449375130444856, guid: 2fd7e9c4494dadd46930fbd7ceafa4df, type: 3}
      propertyPath: m_RootOrder
      value: 11
      objectReference: {fileID: 0}
    - target: {fileID: 4449375130444856, guid: 2fd7e9c4494dadd46930fbd7ceafa4df, type: 3}
      propertyPath: m_LocalPosition.x
      value: 0
      objectReference: {fileID: 0}
    - target: {fileID: 4449375130444856, guid: 2fd7e9c4494dadd46930fbd7ceafa4df, type: 3}
      propertyPath: m_LocalPosition.y
      value: 0
      objectReference: {fileID: 0}
    - target: {fileID: 4449375130444856, guid: 2fd7e9c4494dadd46930fbd7ceafa4df, type: 3}
      propertyPath: m_LocalPosition.z
      value: 0
      objectReference: {fileID: 0}
    - target: {fileID: 4449375130444856, guid: 2fd7e9c4494dadd46930fbd7ceafa4df, type: 3}
      propertyPath: m_LocalRotation.w
      value: 1
      objectReference: {fileID: 0}
    - target: {fileID: 4449375130444856, guid: 2fd7e9c4494dadd46930fbd7ceafa4df, type: 3}
      propertyPath: m_LocalRotation.x
      value: -0
      objectReference: {fileID: 0}
    - target: {fileID: 4449375130444856, guid: 2fd7e9c4494dadd46930fbd7ceafa4df, type: 3}
      propertyPath: m_LocalRotation.y
      value: -0
      objectReference: {fileID: 0}
    - target: {fileID: 4449375130444856, guid: 2fd7e9c4494dadd46930fbd7ceafa4df, type: 3}
      propertyPath: m_LocalRotation.z
      value: -0
      objectReference: {fileID: 0}
    m_RemovedComponents: []
  m_SourcePrefab: {fileID: 100100000, guid: 2fd7e9c4494dadd46930fbd7ceafa4df, type: 3}
--- !u!1001 &1995191934
PrefabInstance:
  m_ObjectHideFlags: 0
  serializedVersion: 2
  m_Modification:
    m_TransformParent: {fileID: 0}
    m_Modifications:
    - target: {fileID: 4500586655266974, guid: 3dda6440a65509c489289f1eb551bce1, type: 3}
      propertyPath: m_RootOrder
      value: 3
      objectReference: {fileID: 0}
    - target: {fileID: 4500586655266974, guid: 3dda6440a65509c489289f1eb551bce1, type: 3}
      propertyPath: m_LocalPosition.x
      value: -4.05
      objectReference: {fileID: 0}
    - target: {fileID: 4500586655266974, guid: 3dda6440a65509c489289f1eb551bce1, type: 3}
      propertyPath: m_LocalPosition.y
      value: 0
      objectReference: {fileID: 0}
    - target: {fileID: 4500586655266974, guid: 3dda6440a65509c489289f1eb551bce1, type: 3}
      propertyPath: m_LocalPosition.z
      value: -4.28
      objectReference: {fileID: 0}
    - target: {fileID: 4500586655266974, guid: 3dda6440a65509c489289f1eb551bce1, type: 3}
      propertyPath: m_LocalRotation.w
      value: 1
      objectReference: {fileID: 0}
    - target: {fileID: 4500586655266974, guid: 3dda6440a65509c489289f1eb551bce1, type: 3}
      propertyPath: m_LocalRotation.x
      value: -0
      objectReference: {fileID: 0}
    - target: {fileID: 4500586655266974, guid: 3dda6440a65509c489289f1eb551bce1, type: 3}
      propertyPath: m_LocalRotation.y
      value: -0
      objectReference: {fileID: 0}
    - target: {fileID: 4500586655266974, guid: 3dda6440a65509c489289f1eb551bce1, type: 3}
      propertyPath: m_LocalRotation.z
      value: -0
      objectReference: {fileID: 0}
    m_RemovedComponents: []
  m_SourcePrefab: {fileID: 100100000, guid: 3dda6440a65509c489289f1eb551bce1, type: 3}
